…
    Warning: `funs()` was deprecated in dplyr 0.8.0.
    ℹ Please use a list of either functions or lambdas:

    # Simple named list: list(mean = mean, median = median)

    # Auto named with `tibble::lst()`: tibble::lst(mean, median)

    # Using lambdas list(~ mean(., trim = .2), ~ median(., na.rm = TRUE))

    # A tibble: 100 × 4
       n_cycle  mean median    sd
       <fct>   <dbl>  <dbl> <dbl>
     1 1       0.776  0.759 0.134
     2 2       0.786  0.774 0.130
     3 3       0.797  0.786 0.127
     4 4       0.799  0.788 0.126
     5 5       0.803  0.790 0.125
     6 6       0.804  0.791 0.124
     7 7       0.806  0.792 0.123
     8 8       0.807  0.793 0.123
     9 9       0.808  0.793 0.123
    10 10      0.808  0.793 0.123
    # ℹ 90 more rows
…
    Warning: `funs()` was deprecated in dplyr 0.8.0.
    ℹ Please use a list of either functions or lambdas:

    # Simple named list: list(mean = mean, median = median)

    # Auto named with `tibble::lst()`: tibble::lst(mean, median)

    # Using lambdas list(~ mean(., trim = .2), ~ median(., na.rm = TRUE))

    # A tibble: 60 × 4
       n_cycle  mean median    sd
       <fct>   <dbl>  <dbl> <dbl>
     1 1       0.788  0.776 0.130
     2 2       0.798  0.783 0.127
     3 3       0.804  0.788 0.124
     4 4       0.806  0.790 0.124
     5 5       0.808  0.791 0.123
     6 6       0.809  0.791 0.123
     7 7       0.810  0.792 0.122
     8 8       0.811  0.793 0.122
     9 9       0.811  0.793 0.122
    10 10      0.811  0.794 0.122
    # ℹ 50 more rows
…
    Warning: `funs()` was deprecated in dplyr 0.8.0.
    ℹ Please use a list of either functions or lambdas:

    # Simple named list: list(mean = mean, median = median)

    # Auto named with `tibble::lst()`: tibble::lst(mean, median)

    # Using lambdas list(~ mean(., trim = .2), ~ median(., na.rm = TRUE))

    # A tibble: 34 × 4
       n_cycle  mean median    sd
       <fct>   <dbl>  <dbl> <dbl>
     1 1       0.799  0.781 0.127
     2 2       0.805  0.787 0.125
     3 3       0.809  0.790 0.123
     4 4       0.810  0.792 0.123
     5 5       0.811  0.792 0.122
     6 6       0.812  0.793 0.122
     7 7       0.812  0.794 0.122
     8 8       0.813  0.793 0.122
     9 9       0.813  0.794 0.121
    10 10      0.813  0.794 0.121
    # ℹ 24 more rows
…
